[2020-05-23] SQLSTATE[HY000] [1045] Access denied for user 'rooddt'@'localhost' (using password: NO)
[2020-05-23] SQLSTATE[HY000] [1045] Access denied for user 'rooddt'@'localhost' (using password: NO)
[2020-05-23] SQLSTATE[HY000] [1045] Access denied for user 'rooddt'@'localhost' (using password: NO)
[2020-05-23] SQLSTATE[HY000] [1045] Access denied for user 'rooddt'@'localhost' (using password: NO)
[2020-05-23] SQLSTATE[HY000] [1045] Access denied for user 'rooddt'@'localhost' (using password: NO)
